<svg width="70" height="70" viewBox="0 0 70 70" fill="none" xmlns="http://www.w3.org/2000/svg">
<circle cx="35" cy="35" r="35" fill="#8163BE"/>
<path d="M35.998 33.5333C33.0992 32.7467 32.167 31.9333 32.167 30.6667C32.167 29.2133 33.4568 28.2 35.6149 28.2C37.888 28.2 38.7308 29.3333 38.8075 31H41.6297C41.5403 28.7067 40.1994 26.6 37.5305 25.92V23H33.6994V25.88C31.222 26.44 29.2299 28.12 29.2299 30.6933C29.2299 33.7733 31.669 35.3067 35.2318 36.2C38.4244 37 39.0629 38.1733 39.0629 39.4133C39.0629 40.3333 38.4371 41.8 35.6149 41.8C32.9843 41.8 31.9499 40.5733 31.8094 39H29C29.1532 41.92 31.2475 43.56 33.6994 44.1067V47H37.5305V44.1333C40.0206 43.64 42 42.1333 42 39.4C42 35.6133 38.8969 34.32 35.998 33.5333Z" fill="#FBE372"/>
<path d="M53.5458 20.5857L50.8522 22.6857C47.1796 18.0048 41.4677 15 35.0538 15C23.9786 15 15.0143 23.9286 15 34.9762C14.9857 46.0333 23.969 55 35.0538 55C43.7124 55 51.091 49.5238 53.8992 41.8524C53.9709 41.6524 53.8658 41.4286 53.6652 41.3619L50.9573 40.4333C50.8629 40.4011 50.7596 40.4069 50.6694 40.4496C50.5793 40.4923 50.5095 40.5685 50.4749 40.6619C50.389 40.9 50.2935 41.1381 50.1932 41.3714C49.367 43.3238 48.1825 45.0762 46.6734 46.581C45.1764 48.0764 43.404 49.2696 41.4534 50.0952C39.4332 50.9476 37.2793 51.381 35.0633 51.381C32.8425 51.381 30.6934 50.9476 28.6732 50.0952C26.7208 49.2731 24.9477 48.0794 23.4533 46.581C21.9522 45.0885 20.7567 43.3191 19.9335 41.3714C19.0786 39.3524 18.644 37.2095 18.644 34.9952C18.644 32.781 19.0786 30.6381 19.9335 28.619C20.7597 26.6667 21.9441 24.9143 23.4533 23.4095C24.9624 21.9048 26.7199 20.7238 28.6732 19.8952C30.6934 19.0429 32.8473 18.6095 35.0633 18.6095C37.2841 18.6095 39.4332 19.0429 41.4534 19.8952C43.4059 20.7174 45.1789 21.911 46.6734 23.4095C47.1462 23.881 47.5903 24.381 48.0011 24.9048L45.126 27.1429C45.0691 27.1867 45.0258 27.2457 45.0011 27.3131C44.9763 27.3804 44.9711 27.4533 44.9861 27.5235C45.001 27.5936 45.0356 27.6581 45.0857 27.7095C45.1358 27.761 45.1994 27.7973 45.2693 27.8143L53.6557 29.8619C53.8944 29.919 54.1285 29.7381 54.1285 29.4952L54.1667 20.881C54.1619 20.5667 53.7942 20.3905 53.5458 20.5857Z" fill="#FBE372"/>
</svg>
